{  
   "error":0,
   "error_message":"",
   "error_code":"",
   "data":{  
      "seoTitleEn":"Event Gallery",
      "seoTitleTc":"活動相冊",
      "seoTitleSc":"活动相册",
      "seoKeywordEn":"SEO keywords",
      "seoKeywordTc":"搜索引擎優化 關鍵詞",
      "seoKeywordSc":"搜索引擎优化 关键词",
      "seoDescriptionEn":"SEO Description",
      "seoDescriptionTc":"搜索引擎優化 描述",
      "seoDescriptionSc":"搜索引擎优化 描述",
      "banner":{  
         "iconStandard":"",
         "iconNarrow":"",
         "initialImgStandard":"",
         "initialImgNarrow":"",
         "titleEn":"",
         "titleTc":"",
         "titleSc":""
      },
      "filterBarStartYear" : 2000,
      "eventGalleryList":[  
         {  
            "id":1,
            "titleEn":"Promotion 1 ",
            "titleTc":"Promotion 1 TC",
            "titleSc":"Promotion 1 SC",
            "dateEn": "2016 01 01",
            "dateTc": "2016 01 01",
            "dateSc": "2016 01 01",
            "thumbnail":""
         }
      ],
      "pageInfo":{  
         "total":49,
         "pageCount":1,
         "pageSize":49,
         "curPage":1
      }
   }
}