{  
   "error":0,
   "error_message":"",
   "error_code":"",
   "data":{  
      "id":1,
      "seoTitleEn": "LINK Customer Site Event Gallery Details EN",
	  "seoTitleTc": "LINK Customer Site Event Gallery Details TC",
	  "seoTitleSc": "LINK Customer Site Event Gallery Details SC",
	  "seoKeywordEn": "LINK Customer Site Event Gallery Details EN",
	  "seoKeywordTc": "LINK Customer Site Event Gallery Details TC",
	  "seoKeywordSc": "LINK Customer Site Event Gallery Details SC",
	  "seoDescriptionEn": "This is LINK Customer Site Event Gallery Details. EN",
	  "seoDescriptionTc": "This is LINK Customer Site Event Gallery Details. TC",
	  "seoDescriptionSc": "This is LINK Customer Site Event Gallery Details. SC",
      "eventGalleryInfo":{  
         "id":17402,
         "headlineEn": "Event Gallery",
         "headlineTc": "Event Gallery TC",
         "headlineSc": "Event Gallery SC",
         "titleEn": "Promotion",
         "titleTc": "Promotion TC",
         "titleSc": "Promotion SC",
         "dateEn" : "2016 01 01",
         "dateTc" : "2016 01 01",
         "dateSC" : "2016 01 01",
         "timeEn" : "",
         "timeTc" : "",
         "timeSc" : "",
         "introductionEn" : "To celebrate the Grand Opening of brand new Lok Fu Market, The LINK had partnered with Metro Radio programme - \"Happy Family\" and \"La Gourment\", to launch a series of dining activities to allow customers to experience a brand-new shopping environment. Meanwhile, the first ever programme \"Junior Shoppers\" in market and grand reward programme has been launched!",
	     "introductionTc" : "為慶祝全新的樂福市場隆重開業，鏈接曾與新城電台節目合作 - “快樂家族”和“香格里拉味精”，推出一系列的餐飲活動，讓客戶體驗到一個全新的購物環境。同時，首次節目“少年購物者”，在市場上和大獎勵計劃已經啟動！",
	     "introductionSc" : "为庆祝全新的乐福市场隆重开业，链接曾与新城电台节目合作 - “快乐家族”和“香格里拉味精”，推出一系列的餐饮活动，让客户体验到一个全新的购物环境。同时，首次节目“少年购物者”，在市场上和大奖励计划已经启动！",
         "locationEn" : "8 Shopping Centre",
         "locationTc" : "8 Shopping Centre TC",
         "locationSc" : "8 Shopping Centre SC",
         "isCustomLocation" : true,
         "shopCentreList":[  
	         {  
	            "areaCode":"NT",
	            "areaNameEn":"HKISLAND",
	            "areaNameTc":"HKISLAND TC",
	            "areaNameSc":"HKISLAND SC",
	            "shopCentres":[  
	               {  
	                  "shopCentreId":1,
	                  "shopCentreNameEn":"",
	                  "shopCentreNameTc":"",
	                  "shopCentreNameSc":""
	               }
	            ]
	         }
	      ]
      },
      "eventGallery" :{
	  		"eventImages" :[
	  			{
	  				"thumbnail" : "",
	  				"altTextEn" : "",
	  				"altTextTc" : "",
	  				"altTextSc" : ""
	  			}
	  		], 
	  		"eventVideos" :[
	  			{
	  				"videoThumbnail" : "",
	                "videoUrl" : "http://www.youtube.com",
	                "altVideoUrl" : ""
	  			}
	  		]
		}
   }
}