{  
   "error":0,
   "error_message":"",
   "error_code":"",
   "data":{  
      "seoTitleEn":"Reading Corner",
      "seoTitleTc":"閱讀角",
      "seoTitleSc":"阅读角",
      "seoKeywordEn":"SEO keywords",
      "seoKeywordTc":"搜索引擎優化 關鍵詞",
      "seoKeywordSc":"搜索引擎优化 关键词",
      "seoDescriptionEn":"SEO Description",
      "seoDescriptionTc":"搜索引擎優化 描述",
      "seoDescriptionSc":"搜索引擎优化 描述",
      "banner":{  
         "iconStandard":"",
         "iconNarrow":"",
         "initialImgStandard":"",
         "initialImgNarrow":"",
         "titleEn":"",
         "titleTc":"",
         "titleSc":""
      },
      "readingCornerList":[  
         {  
            "id":1,
            "titleEn":"Promotion 1 ",
            "titleTc":"Promotion 1 TC",
            "titleSc":"Promotion 1 SC",
            "thumbnailEn":"",
            "thumbnailTc":"",
            "thumbnailSc":"",
            "downloadIconUrl":"download.svg",
            "downloadUrl":"http://google.com"
         }
      ],
      "pageInfo":{  
         "total":49,
         "pageCount":1,
         "pageSize":49,
         "curPage":1
      }
   }
}