{
	"error": 0,
	"error_message": null,
	"error_code": null,
	"data": {
		"districtsList": {
			"areaCode": "",
			"areaNameEn": "",
			"areaNameTc": "",
			"areaNameSc": "",
			"districts": [{
				"districtId": 1,
				"districtNameEn": "Tai Po",
				"districtNameTc": "大埔",
				"districtNameSc": "大埔"
			}],
			
		},
		"shopCentreList": [{
			"shopCentreId": 1,
			"districtId": 1,
			"shopCategoryIds": "1,2,3,4,5",
			"shopCentreNameEn": "Choi Fai Estate Retail and Car Park",
			"shopCentreNameTc": "彩輝邨商舖及停車場",
			"shopCentreNameSc": "彩辉邨商舖及停车场"
		}],
		"categoryList": [{
			"shopCategoryId": 1,
			"shopCategoryNameEn": "Western Cuisine",
			"shopCategoryNameTc": "西餐",
			"shopCategoryNameSc": "西餐"
		}]
	}
}